{"paging":{"page":1,"total":5539,"page_size":20,"pages":277},"loans":[{"id":1178657,"name":"Marion","description":{"languages":["en"]},"status":"fundraising","funded_amount":0,"basket_amount":0,"image":{"id":2351227,"template_id":1},"activity":"Home Energy","sector":"Personal Use","themes":["Green"],"use":"to buy a solar lantern.","location":{"country_code":"KE","country":"Kenya","town":"Chuka","geo":{"level":"town","pairs":"-0.333333 37.65","type":"point"}},"partner_id":156,"posted_date":"2016-11-10T17:50:05Z","planned_expiration_date":"2016-12-10T17:50:05Z","loan_amount":150,"borrower_count":1,"lender_count":0,"bonus_credit_eligibility":false,"tags":[]},{"id":1182813,"name":"Flor De Liz","description":{"languages":["es","en"]},"status":"fundraising","funded_amount":0,"basket_amount":0,"image":{"id":2356862,"template_id":1},"activity":"Personal Housing Expenses","sector":"Housing","themes":["Water and Sanitation"],"use":"purchase toilets, sinks, cement, tiles, blocks, and wood for doors.","location":{"country_code":"NI","country":"Nicaragua","town":"Leon","geo":{"level":"town","pairs":"12.435556 -86.879444","type":"point"}},"partner_id":176,"posted_date":"2016-11-10T17:50:05Z","planned_expiration_date":"2016-12-10T17:50:05Z","loan_amount":1600,"borrower_count":1,"lender_count":0,"bonus_credit_eligibility":true,"tags":[]},{"id":1178285,"name":"Joshua Group","description":{"languages":["en"]},"status":"fundraising","funded_amount":0,"basket_amount":0,"image":{"id":2350701,"template_id":1},"activity":"Food Market","sector":"Food","use":"to pay for more bags of rice, bags of sugar and crates of soft drinks.","location":{"country_code":"SL","country":"Sierra Leone","town":"Freetown Central","geo":{"level":"town","pairs":"8.5 -11.5","type":"point"}},"partner_id":148,"posted_date":"2016-11-10T17:50:03Z","planned_expiration_date":"2016-12-10T17:50:03Z","loan_amount":3025,"borrower_count":5,"lender_count":0,"bonus_credit_eligibility":false,"tags":[]},{"id":1178660,"name":"Marietta","description":{"languages":["en"]},"status":"fundraising","funded_amount":0,"basket_amount":0,"image":{"id":2351233,"template_id":1},"activity":"Fuel\/Firewood","sector":"Retail","use":"to purchase a machine for cutting timber.","location":{"country_code":"KE","country":"Kenya","town":"Embu","geo":{"level":"town","pairs":"-0.533333 37.45","type":"point"}},"partner_id":138,"posted_date":"2016-11-10T17:50:03Z","planned_expiration_date":"2016-12-10T17:50:03Z","loan_amount":1000,"borrower_count":1,"lender_count":0,"bonus_credit_eligibility":true,"tags":[]},{"id":1178658,"name":"Sameer","description":{"languages":["en"]},"status":"fundraising","funded_amount":0,"basket_amount":0,"image":{"id":2351231,"template_id":1},"activity":"Cafe","sector":"Food","themes":["Vulnerable Groups","Refugees\/Displaced"],"use":"to purchase necessary materials to better satisfy his customers' demands.","location":{"country_code":"LB","country":"Lebanon","town":"Ain Al Helwi","geo":{"level":"town","pairs":"33.833333 35.833333","type":"point"}},"partner_id":77,"posted_date":"2016-11-10T17:50:02Z","planned_expiration_date":"2016-12-10T17:50:02Z","loan_amount":1300,"borrower_count":1,"lender_count":0,"bonus_credit_eligibility":true,"tags":[]},{"id":1175332,"name":"Ghislaine","description":{"languages":["fr","en"]},"status":"fundraising","funded_amount":0,"basket_amount":0,"image":{"id":1909927,"template_id":1},"activity":"Grocery Store","sector":"Food","use":"to increase her inventory of rice, sugar, and eggs to sell.","location":{"country_code":"HT","country":"Haiti","town":"Fontamara(Centre-Ville)","geo":{"level":"town","pairs":"19 -72.416667","type":"point"}},"partner_id":442,"posted_date":"2016-11-10T17:40:02Z","planned_expiration_date":"2016-12-10T17:40:02Z","loan_amount":200,"borrower_count":1,"lender_count":0,"bonus_credit_eligibility":false,"tags":[]},{"id":1175773,"name":"Nirina","description":{"languages":["fr","en"]},"status":"fundraising","funded_amount":50,"basket_amount":0,"image":{"id":2347051,"template_id":1},"activity":"Agriculture","sector":"Agriculture","use":"to buy seeds and fertilizer and to pay field hands to prepare the land for growing rice.","location":{"country_code":"MG","country":"Madagascar","town":"Andranomanelatra","geo":{"level":"town","pairs":"-20 47","type":"point"}},"partner_id":359,"posted_date":"2016-11-10T17:40:02Z","planned_expiration_date":"2016-12-10T17:40:02Z","loan_amount":200,"borrower_count":1,"lender_count":1,"bonus_credit_eligibility":false,"tags":[]},{"id":1180383,"name":"Sanggye","description":{"languages":["en"]},"status":"fundraising","funded_amount":0,"basket_amount":75,"image":{"id":2352560,"template_id":1},"activity":"Textiles","sector":"Arts","themes":["Social Enterprise"],"use":"to train 3 new artisans in traditional Tibetan tailoring and move her workshop to a larger space.","location":{"country_code":"CN","country":"China","town":"Yunnan","geo":{"level":"town","pairs":"35 105","type":"point"}},"partner_id":412,"posted_date":"2016-11-10T17:40:02Z","planned_expiration_date":"2016-12-10T17:40:02Z","loan_amount":8000,"borrower_count":1,"lender_count":0,"bonus_credit_eligibility":true,"tags":[]},{"id":1175316,"name":"Adrienne","description":{"languages":["fr","en"]},"status":"fundraising","funded_amount":0,"basket_amount":0,"image":{"id":2346433,"template_id":1},"activity":"Cosmetics Sales","sector":"Retail","use":"to increase her inventory of beauty creams, soaps, and deodorants.","location":{"country_code":"HT","country":"Haiti","town":"Delmas","geo":{"level":"town","pairs":"19 -72.416667","type":"point"}},"partner_id":442,"posted_date":"2016-11-10T17:30:03Z","planned_expiration_date":"2016-12-10T17:30:03Z","loan_amount":400,"borrower_count":1,"lender_count":0,"bonus_credit_eligibility":false,"tags":[]},{"id":1175325,"name":"Natacha","description":{"languages":["fr","en"]},"status":"fundraising","funded_amount":0,"basket_amount":0,"image":{"id":2346445,"template_id":1},"activity":"Cosmetics Sales","sector":"Retail","use":"to increase her inventory of cosmetic products to sell.","location":{"country_code":"HT","country":"Haiti","town":"Delmas","geo":{"level":"town","pairs":"19 -72.416667","type":"point"}},"partner_id":442,"posted_date":"2016-11-10T17:30:03Z","planned_expiration_date":"2016-12-10T17:30:03Z","loan_amount":625,"borrower_count":1,"lender_count":0,"bonus_credit_eligibility":false,"tags":[]},{"id":1182649,"name":"Melva Nelly","description":{"languages":["es","en"]},"status":"fundraising","funded_amount":0,"basket_amount":0,"image":{"id":2356623,"template_id":1},"activity":"Retail","sector":"Retail","use":"helps to buy chains, stainless steel rings, etc., and a display case.","location":{"country_code":"EC","country":"Ecuador","town":"Montecristi","geo":{"level":"town","pairs":"-2 -77.5","type":"point"}},"partner_id":137,"posted_date":"2016-11-10T17:30:02Z","planned_expiration_date":"2016-12-10T17:30:02Z","loan_amount":775,"borrower_count":1,"lender_count":0,"bonus_credit_eligibility":true,"tags":[]},{"id":1178655,"name":"Doaa","description":{"languages":["en"]},"status":"fundraising","funded_amount":0,"basket_amount":0,"image":{"id":2351225,"template_id":1},"activity":"Home Energy","sector":"Personal Use","themes":["Green"],"use":"to buy a Solarium.","location":{"country_code":"PS","country":"Palestine","town":"Jabalia-Gaza Strip","geo":{"level":"town","pairs":"31.92157 35.203285","type":"point"}},"partner_id":80,"posted_date":"2016-11-10T17:20:02Z","planned_expiration_date":"2016-12-10T17:20:02Z","loan_amount":1000,"borrower_count":1,"lender_count":0,"bonus_credit_eligibility":false,"tags":[]},{"id":1178656,"name":"Ensherah","description":{"languages":["en"]},"status":"fundraising","funded_amount":0,"basket_amount":0,"image":{"id":2351228,"template_id":1},"activity":"Personal Housing Expenses","sector":"Housing","themes":["Vulnerable Groups"],"use":"to improve her house and paint it.","location":{"country_code":"PS","country":"Palestine","town":"Nablus","geo":{"level":"town","pairs":"31.92157 35.203285","type":"point"}},"partner_id":462,"posted_date":"2016-11-10T17:20:02Z","planned_expiration_date":"2016-12-10T17:20:02Z","loan_amount":1500,"borrower_count":1,"lender_count":0,"bonus_credit_eligibility":false,"tags":[]},{"id":1178654,"name":"Caroline","description":{"languages":["en"]},"status":"fundraising","funded_amount":0,"basket_amount":0,"image":{"id":2351224,"template_id":1},"activity":"Fruits & Vegetables","sector":"Food","use":"to add stock of tomatoes.","location":{"country_code":"KE","country":"Kenya","town":"litein","geo":{"level":"town","pairs":"-0.583333 35.183333","type":"point"}},"partner_id":386,"posted_date":"2016-11-10T17:10:03Z","planned_expiration_date":"2016-12-10T17:10:03Z","loan_amount":500,"borrower_count":1,"lender_count":0,"bonus_credit_eligibility":false,"tags":[]},{"id":1178641,"name":"Aqeela","description":{"languages":["en"]},"status":"fundraising","funded_amount":0,"basket_amount":0,"image":{"id":2351173,"template_id":1},"activity":"Animal Sales","sector":"Agriculture","themes":["Conflict Zones","Islamic Finance"],"use":"to purchase more cattle to resell in the market.","location":{"country_code":"PK","country":"Pakistan","town":"Haripur","geo":{"level":"town","pairs":"30 70","type":"point"}},"partner_id":245,"posted_date":"2016-11-10T17:10:02Z","planned_expiration_date":"2016-12-10T17:10:02Z","loan_amount":300,"borrower_count":1,"lender_count":0,"bonus_credit_eligibility":true,"tags":[]},{"id":1182676,"name":"Maria Libinia","description":{"languages":["es","en"]},"status":"fundraising","funded_amount":50,"basket_amount":625,"image":{"id":2356656,"template_id":1},"activity":"Sewing","sector":"Services","use":"to purchase fabric and other materials for sewing.","location":{"country_code":"EC","country":"Ecuador","town":"Rocafuerte","geo":{"level":"town","pairs":"-2 -77.5","type":"point"}},"partner_id":137,"posted_date":"2016-11-10T17:10:02Z","planned_expiration_date":"2016-12-10T17:10:02Z","loan_amount":1075,"borrower_count":1,"lender_count":2,"bonus_credit_eligibility":true,"tags":[{"name":"user_favorite"}]},{"id":1182842,"name":"Arianeth","description":{"languages":["es","en"]},"status":"fundraising","funded_amount":0,"basket_amount":0,"image":{"id":2356894,"template_id":1},"activity":"Retail","sector":"Retail","use":"to buy new merchandise such as women's shoes, blouses, dresses and pants.","location":{"country_code":"NI","country":"Nicaragua","town":"Rivas","geo":{"level":"town","pairs":"11.3 -85.75","type":"point"}},"partner_id":176,"posted_date":"2016-11-10T17:00:03Z","planned_expiration_date":"2016-12-10T17:00:03Z","loan_amount":300,"borrower_count":1,"lender_count":0,"bonus_credit_eligibility":true,"tags":[]},{"id":1178640,"name":"Jane","description":{"languages":["en"]},"status":"fundraising","funded_amount":25,"basket_amount":0,"image":{"id":2351209,"template_id":1},"activity":"Home Energy","sector":"Personal Use","themes":["Green"],"use":"to buy a solar lantern.","location":{"country_code":"KE","country":"Kenya","town":"Chuka","geo":{"level":"town","pairs":"-0.333333 37.65","type":"point"}},"partner_id":156,"posted_date":"2016-11-10T17:00:02Z","planned_expiration_date":"2016-12-10T17:00:02Z","loan_amount":150,"borrower_count":1,"lender_count":1,"bonus_credit_eligibility":false,"tags":[]},{"id":1182832,"name":"Darling","description":{"languages":["es","en"]},"status":"fundraising","funded_amount":0,"basket_amount":0,"image":{"id":2356883,"template_id":1},"activity":"Higher education costs","sector":"Education","themes":["Higher Education"],"use":"to pay graduation fees.","location":{"country_code":"NI","country":"Nicaragua","town":"Leon","geo":{"level":"town","pairs":"12.435556 -86.879444","type":"point"}},"partner_id":176,"posted_date":"2016-11-10T16:50:03Z","planned_expiration_date":"2016-12-10T16:50:03Z","loan_amount":650,"borrower_count":1,"lender_count":0,"bonus_credit_eligibility":false,"tags":[]},{"id":1182817,"name":"Francisca","description":{"languages":["es","en"]},"status":"fundraising","funded_amount":0,"basket_amount":0,"image":{"id":2356868,"template_id":1},"activity":"Personal Housing Expenses","sector":"Housing","themes":["Water and Sanitation"],"use":"to buy new merchandise such as plus size blouses, shoes, women's accessories, perfumes, moisturizers and other items.","location":{"country_code":"NI","country":"Nicaragua","town":"Leon","geo":{"level":"town","pairs":"12.435556 -86.879444","type":"point"}},"partner_id":176,"posted_date":"2016-11-10T16:50:02Z","planned_expiration_date":"2016-12-10T16:50:02Z","loan_amount":1000,"borrower_count":1,"lender_count":0,"bonus_credit_eligibility":true,"tags":[]}]}