{"paging":{"page":2,"total":5540,"page_size":20,"pages":277},"loans":[{"id":1178638,"name":"Shakeela","description":{"languages":["en"]},"status":"fundraising","funded_amount":0,"basket_amount":0,"image":{"id":2351175,"template_id":1},"activity":"Cattle","sector":"Agriculture","themes":["Conflict Zones","Islamic Finance"],"use":"to purchase more baby goats and calves to cater to more customers.","location":{"country_code":"PK","country":"Pakistan","town":"Mansehra","geo":{"level":"town","pairs":"30 70","type":"point"}},"partner_id":245,"posted_date":"2016-11-10T16:40:02Z","planned_expiration_date":"2016-12-10T16:40:02Z","loan_amount":350,"borrower_count":1,"lender_count":0,"bonus_credit_eligibility":true,"tags":[]},{"id":1178639,"name":"Matloob","description":{"languages":["en"]},"status":"fundraising","funded_amount":0,"basket_amount":0,"image":{"id":2351174,"template_id":1},"activity":"Cattle","sector":"Agriculture","themes":["Conflict Zones","Islamic Finance"],"use":"to purchase more animals to grow her sales.","location":{"country_code":"PK","country":"Pakistan","town":"Haripur","geo":{"level":"town","pairs":"30 70","type":"point"}},"partner_id":245,"posted_date":"2016-11-10T16:40:02Z","planned_expiration_date":"2016-12-10T16:40:02Z","loan_amount":250,"borrower_count":1,"lender_count":0,"bonus_credit_eligibility":true,"tags":[]},{"id":1182802,"name":"Martha Lorena","description":{"languages":["es","en"]},"status":"fundraising","funded_amount":0,"basket_amount":0,"image":{"id":2356853,"template_id":1},"activity":"Personal Housing Expenses","sector":"Housing","themes":["Water and Sanitation"],"use":"to buy a toilet, pipes, cement, tiles, sink and blocks.","location":{"country_code":"NI","country":"Nicaragua","town":"Rivas","geo":{"level":"town","pairs":"11.3 -85.75","type":"point"}},"partner_id":176,"posted_date":"2016-11-10T16:40:02Z","planned_expiration_date":"2016-12-10T16:40:02Z","loan_amount":2000,"borrower_count":1,"lender_count":0,"bonus_credit_eligibility":true,"tags":[{"name":"#Eco-friendly"},{"name":"#Parent"},{"name":"#Health and Sanitation"}]},{"id":1182810,"name":"Francisco Jos\u00e9","description":{"languages":["es","en"]},"status":"fundraising","funded_amount":0,"basket_amount":0,"image":{"id":2356860,"template_id":1},"activity":"Personal Housing Expenses","sector":"Housing","themes":["Water and Sanitation"],"use":"to renovate apartment bathrooms.","location":{"country_code":"NI","country":"Nicaragua","town":"Leon","geo":{"level":"town","pairs":"12.435556 -86.879444","type":"point"}},"partner_id":176,"posted_date":"2016-11-10T16:40:02Z","planned_expiration_date":"2016-12-10T16:40:02Z","loan_amount":1600,"borrower_count":1,"lender_count":0,"bonus_credit_eligibility":false,"tags":[{"name":"#Eco-friendly"},{"name":"#Parent"},{"name":"#Health and Sanitation"},{"name":"#Biz Durable Asset"},{"name":"#Repair Renew Replace"}]},{"id":1178633,"name":"Afia","description":{"languages":["en"]},"status":"fundraising","funded_amount":0,"basket_amount":0,"image":{"id":2351180,"template_id":1},"activity":"General Store","sector":"Retail","themes":["Conflict Zones","Islamic Finance"],"use":"to buy rice, sugar, grains, biscuits, oil, and flour from the market at lower rates, which will make her brother's stock available to his customers.","location":{"country_code":"PK","country":"Pakistan","town":"Mansehra","geo":{"level":"town","pairs":"30 70","type":"point"}},"partner_id":245,"posted_date":"2016-11-10T16:30:04Z","planned_expiration_date":"2016-12-10T16:30:04Z","loan_amount":350,"borrower_count":1,"lender_count":0,"bonus_credit_eligibility":true,"tags":[]},{"id":1178634,"name":"Zareena","description":{"languages":["en"]},"status":"fundraising","funded_amount":0,"basket_amount":0,"image":{"id":2351179,"template_id":1},"activity":"Tailoring","sector":"Services","themes":["Conflict Zones","Islamic Finance"],"use":"to purchase new stitching machine.","location":{"country_code":"PK","country":"Pakistan","town":"Mansehra","geo":{"level":"town","pairs":"30 70","type":"point"}},"partner_id":245,"posted_date":"2016-11-10T16:30:04Z","planned_expiration_date":"2016-12-10T16:30:04Z","loan_amount":350,"borrower_count":1,"lender_count":0,"bonus_credit_eligibility":true,"tags":[]},{"id":1178636,"name":"Resham","description":{"languages":["en"]},"status":"fundraising","funded_amount":0,"basket_amount":0,"image":{"id":2351176,"template_id":1},"activity":"Cattle","sector":"Agriculture","themes":["Conflict Zones","Islamic Finance"],"use":"to purchase more cattle for reselling in the market.","location":{"country_code":"PK","country":"Pakistan","town":"Mansehra","geo":{"level":"town","pairs":"30 70","type":"point"}},"partner_id":245,"posted_date":"2016-11-10T16:30:04Z","planned_expiration_date":"2016-12-10T16:30:04Z","loan_amount":450,"borrower_count":1,"lender_count":0,"bonus_credit_eligibility":true,"tags":[]},{"id":1178628,"name":"Nurten","description":{"languages":["en"]},"status":"fundraising","funded_amount":100,"basket_amount":0,"image":{"id":2142060,"template_id":1},"activity":"Retail","sector":"Retail","themes":["Underfunded Areas"],"use":"to buy material in bulk for making and selling trotline (heavy fishing line).","location":{"country_code":"TR","country":"Turkey","geo":{"level":"country","pairs":"39 35","type":"point"}},"partner_id":198,"posted_date":"2016-11-10T16:30:03Z","planned_expiration_date":"2016-12-10T16:30:03Z","loan_amount":375,"borrower_count":1,"lender_count":2,"bonus_credit_eligibility":false,"tags":[]},{"id":1178637,"name":"Hatice","description":{"languages":["en"]},"status":"fundraising","funded_amount":100,"basket_amount":0,"image":{"id":2351208,"template_id":1},"activity":"Shoe Sales","sector":"Retail","themes":["Underfunded Areas"],"use":"to buy slippers in bulk.","location":{"country_code":"TR","country":"Turkey","geo":{"level":"country","pairs":"39 35","type":"point"}},"partner_id":198,"posted_date":"2016-11-10T16:30:03Z","planned_expiration_date":"2016-12-10T16:30:03Z","loan_amount":400,"borrower_count":1,"lender_count":2,"bonus_credit_eligibility":false,"tags":[]},{"id":1182753,"name":"Karen Lucia","description":{"languages":["es","en"]},"status":"fundraising","funded_amount":575,"basket_amount":50,"image":{"id":2356759,"template_id":1},"activity":"Services","sector":"Services","use":"to buy a new printer.","location":{"country_code":"EC","country":"Ecuador","town":"Jipijapa","geo":{"level":"town","pairs":"-2 -77.5","type":"point"}},"partner_id":137,"posted_date":"2016-11-10T16:30:03Z","planned_expiration_date":"2016-12-10T16:30:03Z","loan_amount":1075,"borrower_count":1,"lender_count":7,"bonus_credit_eligibility":true,"tags":[]},{"id":1178632,"name":"Samina","description":{"languages":["en"]},"status":"fundraising","funded_amount":25,"basket_amount":0,"image":{"id":2351181,"template_id":1},"activity":"Livestock","sector":"Agriculture","themes":["Conflict Zones","Islamic Finance"],"use":"to purchase more baby goats and calves to cater to more customers.","location":{"country_code":"PK","country":"Pakistan","town":"Mansehra","geo":{"level":"town","pairs":"30 70","type":"point"}},"partner_id":245,"posted_date":"2016-11-10T16:20:03Z","planned_expiration_date":"2016-12-10T16:20:03Z","loan_amount":300,"borrower_count":1,"lender_count":1,"bonus_credit_eligibility":true,"tags":[]},{"id":1182707,"name":"Patricia","description":{"languages":["es","en"]},"status":"fundraising","funded_amount":0,"basket_amount":0,"image":{"id":2356692,"template_id":1},"activity":"Property","sector":"Housing","themes":["Vulnerable Groups"],"use":"to build the foundation of her own home.","location":{"country_code":"MX","country":"Mexico","town":"Palenque, Chiapas","geo":{"level":"town","pairs":"23 -102","type":"point"}},"partner_id":459,"posted_date":"2016-11-10T16:20:03Z","planned_expiration_date":"2016-12-10T16:20:03Z","loan_amount":1225,"borrower_count":1,"lender_count":0,"bonus_credit_eligibility":false,"tags":[]},{"id":1182711,"name":"Fanny Arinda","description":{"languages":["es","en"]},"status":"fundraising","funded_amount":0,"basket_amount":0,"image":{"id":2356701,"template_id":1},"activity":"Property","sector":"Housing","themes":["Vulnerable Groups"],"use":"to expand her home because her business has taken over.","location":{"country_code":"MX","country":"Mexico","town":"Tinun, Campeche","geo":{"level":"town","pairs":"23 -102","type":"point"}},"partner_id":459,"posted_date":"2016-11-10T16:20:03Z","planned_expiration_date":"2016-12-10T16:20:03Z","loan_amount":1475,"borrower_count":1,"lender_count":0,"bonus_credit_eligibility":false,"tags":[]},{"id":1178623,"name":"Aziza","description":{"languages":["en"]},"status":"fundraising","funded_amount":50,"basket_amount":0,"image":{"id":2351201,"template_id":1},"activity":"Farming","sector":"Agriculture","use":"to enlarge her farming and sewing businesses.","location":{"country_code":"TJ","country":"Tajikistan","town":"Shahrituz","geo":{"level":"town","pairs":"39 71","type":"point"}},"partner_id":100,"posted_date":"2016-11-10T16:10:02Z","planned_expiration_date":"2016-12-10T16:10:02Z","loan_amount":400,"borrower_count":1,"lender_count":2,"bonus_credit_eligibility":true,"tags":[]},{"id":1178629,"name":"Noreen","description":{"languages":["en"]},"status":"fundraising","funded_amount":25,"basket_amount":0,"image":{"id":2351185,"template_id":1},"activity":"Furniture Making","sector":"Manufacturing","themes":["Conflict Zones","Islamic Finance"],"use":"to purchase good quality wood along with packs of polish and nails in larger quantities to increase their production.","location":{"country_code":"PK","country":"Pakistan","town":"Mansehra","geo":{"level":"town","pairs":"30 70","type":"point"}},"partner_id":245,"posted_date":"2016-11-10T16:10:02Z","planned_expiration_date":"2016-12-10T16:10:02Z","loan_amount":250,"borrower_count":1,"lender_count":1,"bonus_credit_eligibility":true,"tags":[]},{"id":1178630,"name":"Fiza","description":{"languages":["en"]},"status":"fundraising","funded_amount":25,"basket_amount":0,"image":{"id":2351183,"template_id":1},"activity":"Metal Shop","sector":"Manufacturing","themes":["Conflict Zones","Islamic Finance"],"use":"to purchase more equipment related to his welding work to provide better services to his customers.","location":{"country_code":"PK","country":"Pakistan","town":"Mansehra","geo":{"level":"town","pairs":"30 70","type":"point"}},"partner_id":245,"posted_date":"2016-11-10T16:10:02Z","planned_expiration_date":"2016-12-10T16:10:02Z","loan_amount":300,"borrower_count":1,"lender_count":1,"bonus_credit_eligibility":true,"tags":[]},{"id":1182685,"name":"Marlene","description":{"languages":["es","en"]},"status":"fundraising","funded_amount":0,"basket_amount":0,"image":{"id":2351004,"template_id":1},"activity":"Property","sector":"Housing","themes":["Vulnerable Groups"],"use":"to expand her home since her business has gradually taken up space.","location":{"country_code":"MX","country":"Mexico","town":"Atasta, Carmen, Campeche","geo":{"level":"town","pairs":"23 -102","type":"point"}},"partner_id":459,"posted_date":"2016-11-10T16:10:02Z","planned_expiration_date":"2016-12-10T16:10:02Z","loan_amount":1000,"borrower_count":1,"lender_count":0,"bonus_credit_eligibility":false,"tags":[]},{"id":1182688,"name":"Maria Del Carmen","description":{"languages":["es","en"]},"status":"fundraising","funded_amount":0,"basket_amount":0,"image":{"id":2351003,"template_id":1},"activity":"Property","sector":"Housing","themes":["Vulnerable Groups"],"use":"to expand her humble home.","location":{"country_code":"MX","country":"Mexico","town":"Atasta, Carmen, Campeche","geo":{"level":"town","pairs":"23 -102","type":"point"}},"partner_id":459,"posted_date":"2016-11-10T16:10:02Z","planned_expiration_date":"2016-12-10T16:10:02Z","loan_amount":1000,"borrower_count":1,"lender_count":0,"bonus_credit_eligibility":false,"tags":[]},{"id":1175294,"name":"Jiguiya Group","description":{"languages":["fr","en"]},"status":"fundraising","funded_amount":0,"basket_amount":0,"image":{"id":2346405,"template_id":1},"activity":"Animal Sales","sector":"Agriculture","use":"to buy cattle that he will fatten for resale.","location":{"country_code":"ML","country":"Mali","town":"N'Togonasso","geo":{"level":"town","pairs":"17 -4","type":"point"}},"partner_id":438,"posted_date":"2016-11-10T16:00:03Z","planned_expiration_date":"2016-12-10T16:00:03Z","loan_amount":3675,"borrower_count":8,"lender_count":0,"bonus_credit_eligibility":true,"tags":[]},{"id":1178624,"name":"Florida","description":{"languages":["en"]},"status":"fundraising","funded_amount":150,"basket_amount":0,"image":{"id":2162625,"template_id":1},"activity":"Food Production\/Sales","sector":"Food","use":"to purchase food ingredients and pork meat to cook and to sell.","location":{"country_code":"PH","country":"Philippines","town":"Sta.Cruz, Alicia, Isabela","geo":{"level":"town","pairs":"13 122","type":"point"}},"partner_id":123,"posted_date":"2016-11-10T16:00:03Z","planned_expiration_date":"2016-12-10T16:00:03Z","loan_amount":625,"borrower_count":1,"lender_count":6,"bonus_credit_eligibility":true,"tags":[]}]}